[
  {
    "publishedAt": "2017-07-08T21:39:02.000Z",
    "channelId": "UCRyHBkIJ90SZNRyq1iVda5g",
    "title": "How To Start Training Your Puppy!",
    "description": "If you enjoyed this video, consider joining our campaign at www.patreon.com/trainingpositive \nor connect with us at\ninstagram: training positive\n-I made this video as an introduction to puppy training. Many people who bring home a young dog between 8-12 weeks find training to be an overwhelming experience. Even if you have had a dog in the past, it's easy to forget the small details that are essential for puppies and can truly make a big difference. \n\nI plan on releasing a number of new tutorials featuring Watson who is seen in this video as a 9 week old Labrador Retriever. If you would like to make requests for specific videos or want to join the conversation on dog training, be sure to follow our Facebook page and subscribe to the channel so you can stay posted on new releases. To connect with us on other training issues related to raising Watson, check out our website for regular blog posts discussing common issues in dog training.",
    "thumbnails": {
      "default": {
        "url": "https://i.ytimg.com/vi/GkuYhyfkL1g/default.jpg",
        "width": 120,
        "height": 90
      },
      "medium": {
        "url": "https://i.ytimg.com/vi/GkuYhyfkL1g/mqdefault.jpg",
        "width": 320,
        "height": 180
      },
      "high": {
        "url": "https://i.ytimg.com/vi/GkuYhyfkL1g/hqdefault.jpg",
        "width": 480,
        "height": 360
      },
      "standard": {
        "url": "https://i.ytimg.com/vi/GkuYhyfkL1g/sddefault.jpg",
        "width": 640,
        "height": 480
      },
      "maxres": {
        "url": "https://i.ytimg.com/vi/GkuYhyfkL1g/maxresdefault.jpg",
        "width": 1280,
        "height": 720
      }
    },
    "channelTitle": "Training Positive",
    "playlistId": "PL1912AA0D771586FA",
    "position": 0,
    "resourceId": {
      "kind": "youtube#video",
      "videoId": "GkuYhyfkL1g"
    }
  },
  {
    "publishedAt": "2018-07-02T17:54:58.000Z",
    "channelId": "UCRyHBkIJ90SZNRyq1iVda5g",
    "title": "How to train your PUPPY to walk on a loose leash!",
    "description": "This puppy training tutorial will show you how to teach your dog to stop pulling on walks. It's important to first develop a strong foundation before taking this behavior around distractions. Most puppies are not ready to start going on long walks when they first come home and the exercises demonstrated in this video are essential first steps that you can start from day one! The techniques shown here will also help develop a positive relationship with the puppy. Training a dog to behave on a loose leash is necessary but most people fail because they jump ahead without taking time to work on the basics. Subscribe to our channel for everything you need to know about training your dog and updates about future videos on how to take this skill to the next level!\n\nAll content on this YouTube channel is made possible because of you! Help us grow and deliver more information on dog training by supporting our Patreon: www.patreon.com/trainingpositive\n\nConnect with us!\nInstagram: trainingpositive\nFacebook: www.facebook.com/trainingpositive\nWebsite: www.trainingpositive.com",
    "thumbnails": {
      "default": {
        "url": "https://i.ytimg.com/vi/1-eKSSuUaz4/default.jpg",
        "width": 120,
        "height": 90
      },
      "medium": {
        "url": "https://i.ytimg.com/vi/1-eKSSuUaz4/mqdefault.jpg",
        "width": 320,
        "height": 180
      },
      "high": {
        "url": "https://i.ytimg.com/vi/1-eKSSuUaz4/hqdefault.jpg",
        "width": 480,
        "height": 360
      },
      "standard": {
        "url": "https://i.ytimg.com/vi/1-eKSSuUaz4/sddefault.jpg",
        "width": 640,
        "height": 480
      },
      "maxres": {
        "url": "https://i.ytimg.com/vi/1-eKSSuUaz4/maxresdefault.jpg",
        "width": 1280,
        "height": 720
      }
    },
    "channelTitle": "Training Positive",
    "playlistId": "PL1912AA0D771586FA",
    "position": 1,
    "resourceId": {
      "kind": "youtube#video",
      "videoId": "1-eKSSuUaz4"
    }
  },
  {
    "publishedAt": "2018-02-16T21:54:30.000Z",
    "channelId": "UCRyHBkIJ90SZNRyq1iVda5g",
    "title": "How To Teach Your Dog To FETCH Perfectly! (Dog Training Tutorial)",
    "description": "If you enjoyed this video, consider joining our campaign at www.patreon.com/trainingpositive \nor connect with us at\ninstagram: trainingpositive\n-Training a dog to fetch is a very useful behavior that has many benefits. In this video, you will learn step-by-step how to train any dog to fetch. The methods used in this video are based on the science of learning and utilize positive reinforcement as a primary tool. Any dog can successfully learn to do this with patience and over a relatively short period of time. It is important to take your time with each of the concepts demonstrated to get the best results. \n\nPlease consider sharing this video and supporting our work to support positive dog training. We believe that dog training has to emphasize the importance of maintaining a good relationship with your dog and not using aversive training methods which are often considered the norm. Using punishment in training can not only harm the relationship you have with your dog but it also has a negative impact on training.\n\nWatson is a 16 week old Labrador retriever who learned how to do this in a matter of weeks. If you would like to follow our work and learn more about training your dog effectively, follow us:\n\nwww.facebook.com/trainingpositive\nInstagram: tab289\nWebsite: www.trainingpositive.com",
    "thumbnails": {
      "default": {
        "url": "https://i.ytimg.com/vi/MGZwydOtPx0/default.jpg",
        "width": 120,
        "height": 90
      },
      "medium": {
        "url": "https://i.ytimg.com/vi/MGZwydOtPx0/mqdefault.jpg",
        "width": 320,
        "height": 180
      },
      "high": {
        "url": "https://i.ytimg.com/vi/MGZwydOtPx0/hqdefault.jpg",
        "width": 480,
        "height": 360
      },
      "standard": {
        "url": "https://i.ytimg.com/vi/MGZwydOtPx0/sddefault.jpg",
        "width": 640,
        "height": 480
      },
      "maxres": {
        "url": "https://i.ytimg.com/vi/MGZwydOtPx0/maxresdefault.jpg",
        "width": 1280,
        "height": 720
      }
    },
    "channelTitle": "Training Positive",
    "playlistId": "PL1912AA0D771586FA",
    "position": 2,
    "resourceId": {
      "kind": "youtube#video",
      "videoId": "MGZwydOtPx0"
    }
  },
  {
    "publishedAt": "2013-06-15T03:38:48.000Z",
    "channelId": "UCRyHBkIJ90SZNRyq1iVda5g",
    "title": "How To Train Your Dog: \"Come Here!\" PERFECTLY!!!",
    "description": "If you enjoyed this video, consider joining our campaign at www.patreon.com/trainingpositive \nor connect with us at\ninstagram: trainingpositive\n-This video is about reliably teaching your dog how to come to you when you call them. In order to teach this behavior, we have to first consider why a dog will NOT come when they are called, and then target our training specifically to address those issues. However, there are always exceptions to what works best for a particular dog and if your dog has specific needs, then it is important to consult a professional before trying these exercises.\n\nI will be posting a follow-up addendum to supplement this video in a few days, so please stay tuned while that is under work. Here are some additional videos that might be useful to watch related to this topic:\n\nTips on teaching 'come when called': http://www.youtube.com/watch?v=L5UyY_GPZAU\nWorking around distractions: http://www.youtube.com/watch?v=6mIw425kYk4\nEye contact exercise: http://www.youtube.com/watch?v=9oo6tcSxWWg\nOriginal 'come when called' tutorial: http://www.youtube.com/watch?v=QonpHq930Rk\n---------------\n\nYou can connect with us here:\n\nFacebook: www.facebook.com/trainingpositive\nTwitter: www.twitter.com/tab_\nInstagram: www.instagram.com/tab289\n\nPlease use the facebook page to get in touch about particular training issues.\n\nEmail (for business inquiries): tab@trainingpositive.com",
    "thumbnails": {
      "default": {
        "url": "https://i.ytimg.com/vi/nLo8YP4-D8Y/default.jpg",
        "width": 120,
        "height": 90
      },
      "medium": {
        "url": "https://i.ytimg.com/vi/nLo8YP4-D8Y/mqdefault.jpg",
        "width": 320,
        "height": 180
      },
      "high": {
        "url": "https://i.ytimg.com/vi/nLo8YP4-D8Y/hqdefault.jpg",
        "width": 480,
        "height": 360
      },
      "standard": {
        "url": "https://i.ytimg.com/vi/nLo8YP4-D8Y/sddefault.jpg",
        "width": 640,
        "height": 480
      },
      "maxres": {
        "url": "https://i.ytimg.com/vi/nLo8YP4-D8Y/maxresdefault.jpg",
        "width": 1280,
        "height": 720
      }
    },
    "channelTitle": "Training Positive",
    "playlistId": "PL1912AA0D771586FA",
    "position": 3,
    "resourceId": {
      "kind": "youtube#video",
      "videoId": "nLo8YP4-D8Y"
    }
  },
  {
    "publishedAt": "2018-07-02T17:55:07.000Z",
    "channelId": "UCRyHBkIJ90SZNRyq1iVda5g",
    "title": "Dog Training Tutorial: \"Clean up\" / Put Away Objects",
    "description": "If you enjoyed this video, consider joining our campaign at www.patreon.com/trainingpositive \nor connect with us at\ninstagram: trainingpositive\n-\nThis video will teach you how to train your dog to put objects into a container. The behavior has many uses ranging from a fun party trick to real-world applications for working animals who may be required to place or retrieve items from a specified location. If you found this video useful, please consider supporting our work by subscribing to our channel, sharing this video, and joining us on our facebook page for more videos about dog training.\n\nTutorial on \"fetch\" : https://www.youtube.com/watch?v=MGZwydOtPx0&t=2s\n\nHow to start clicker training with your puppy: https://www.youtube.com/watch?v=GkuYhyfkL1g\n\nConnect with us!\nwww.facebook.com/trainingpositive\ninstagram: trainingpositive\nwww.trainingpositive.com",
    "thumbnails": {
      "default": {
        "url": "https://i.ytimg.com/vi/O34UGTnfQ08/default.jpg",
        "width": 120,
        "height": 90
      },
      "medium": {
        "url": "https://i.ytimg.com/vi/O34UGTnfQ08/mqdefault.jpg",
        "width": 320,
        "height": 180
      },
      "high": {
        "url": "https://i.ytimg.com/vi/O34UGTnfQ08/hqdefault.jpg",
        "width": 480,
        "height": 360
      },
      "standard": {
        "url": "https://i.ytimg.com/vi/O34UGTnfQ08/sddefault.jpg",
        "width": 640,
        "height": 480
      },
      "maxres": {
        "url": "https://i.ytimg.com/vi/O34UGTnfQ08/maxresdefault.jpg",
        "width": 1280,
        "height": 720
      }
    },
    "channelTitle": "Training Positive",
    "playlistId": "PL1912AA0D771586FA",
    "position": 4,
    "resourceId": {
      "kind": "youtube#video",
      "videoId": "O34UGTnfQ08"
    }
  },
  {
    "publishedAt": "2017-08-01T20:01:32.000Z",
    "channelId": "UCRyHBkIJ90SZNRyq1iVda5g",
    "title": "How To Crate Train Your PUPPY!",
    "description": "If you enjoyed this video, consider joining our campaign at www.patreon.com/trainingpositive \nor connect with us at\ninstagram: trainingpositive\n-This tutorial is about effectively teaching a dog to enjoy spending time in their crate. This is usually the first task that most new puppy owners have to master. Proper crate training can prevent separation anxiety, help with house-training, and make life much easier for both the dog as well as the humans. However, this is not always an easy task but a calculated and patient approach goes a long way. For more information on crate training, please see my post on this topic on my website: http://www.trainingpositive.com/guidelines-for-crate-training/",
    "thumbnails": {
      "default": {
        "url": "https://i.ytimg.com/vi/HkEkThiTnRc/default.jpg",
        "width": 120,
        "height": 90
      },
      "medium": {
        "url": "https://i.ytimg.com/vi/HkEkThiTnRc/mqdefault.jpg",
        "width": 320,
        "height": 180
      },
      "high": {
        "url": "https://i.ytimg.com/vi/HkEkThiTnRc/hqdefault.jpg",
        "width": 480,
        "height": 360
      },
      "standard": {
        "url": "https://i.ytimg.com/vi/HkEkThiTnRc/sddefault.jpg",
        "width": 640,
        "height": 480
      },
      "maxres": {
        "url": "https://i.ytimg.com/vi/HkEkThiTnRc/maxresdefault.jpg",
        "width": 1280,
        "height": 720
      }
    },
    "channelTitle": "Training Positive",
    "playlistId": "PL1912AA0D771586FA",
    "position": 5,
    "resourceId": {
      "kind": "youtube#video",
      "videoId": "HkEkThiTnRc"
    }
  },
  {
    "publishedAt": "2013-06-14T21:41:47.000Z",
    "channelId": "UCRyHBkIJ90SZNRyq1iVda5g",
    "title": "How To Teach Any Dog PERFECT Obedience! (Sit,Down,Stand)",
    "description": "If you enjoyed this video, consider joining our campaign at www.patreon.com/trainingpositive \nor connect with us at\ninstagram: training positive\n-A popular concern new dog owners have is \"where to start\" when they bring their puppy/dog home. The best place to begin is usually with something relatively simple so the dog-parent can learn to work together as a team and understand the principles of positive reinforcement. Regardless of what you may choose to work on first, teaching basic obedience serves multiple purposes and is typically considered very important. \n\nAs demonstrated in this video, by approaching the task with a 'no-fail' strategy, there is no chance of failure and the dog is guaranteed to succeed. As simple as it may seem, pay careful attention to the order of steps shown in this tutorial. The goal of all training must be to motivate and engage the dog by creating an atmosphere of fun. A dog shouldn't ever be forced to do anything - and if trained properly - will never need to be.\n\nConnect with me here!\n--------------\nFACEBOOK:\nhttp://bit.ly/bffyIl\n\nTWITTER:\nhttp://bit.ly/bupzxJ\n\nWEBSITE:\nwww.trainingpositive.com\n\nEMAIL:\ntab@traningpositive.com",
    "thumbnails": {
      "default": {
        "url": "https://i.ytimg.com/vi/cmhGsDl0OWI/default.jpg",
        "width": 120,
        "height": 90
      },
      "medium": {
        "url": "https://i.ytimg.com/vi/cmhGsDl0OWI/mqdefault.jpg",
        "width": 320,
        "height": 180
      },
      "high": {
        "url": "https://i.ytimg.com/vi/cmhGsDl0OWI/hqdefault.jpg",
        "width": 480,
        "height": 360
      }
    },
    "channelTitle": "Training Positive",
    "playlistId": "PL1912AA0D771586FA",
    "position": 6,
    "resourceId": {
      "kind": "youtube#video",
      "videoId": "cmhGsDl0OWI"
    }
  },
  {
    "publishedAt": "2017-02-27T01:50:37.000Z",
    "channelId": "UCRyHBkIJ90SZNRyq1iVda5g",
    "title": "How To Train Your Dog To Listen WITHOUT FOOD!",
    "description": "If you enjoyed this video, consider joining our campaign at www.patreon.com/trainingpositive \nor connect with us at\ninstagram: trainingpositive\n-This video teaches you how to train your dog to listen to you with or without food rewards! Many dog owners find that their dog only listens to them when they have food. This common problem can easily be resolved by teaching the dog to work for non-food based reinforcers. There are ample opportunities in your daily life to improve your dog's reliability and obedience, we just have to know where to look and how to create successful outcomes that the dog can learn from.",
    "thumbnails": {
      "default": {
        "url": "https://i.ytimg.com/vi/P0Lsw4mNT8c/default.jpg",
        "width": 120,
        "height": 90
      },
      "medium": {
        "url": "https://i.ytimg.com/vi/P0Lsw4mNT8c/mqdefault.jpg",
        "width": 320,
        "height": 180
      },
      "high": {
        "url": "https://i.ytimg.com/vi/P0Lsw4mNT8c/hqdefault.jpg",
        "width": 480,
        "height": 360
      },
      "standard": {
        "url": "https://i.ytimg.com/vi/P0Lsw4mNT8c/sddefault.jpg",
        "width": 640,
        "height": 480
      },
      "maxres": {
        "url": "https://i.ytimg.com/vi/P0Lsw4mNT8c/maxresdefault.jpg",
        "width": 1280,
        "height": 720
      }
    },
    "channelTitle": "Training Positive",
    "playlistId": "PL1912AA0D771586FA",
    "position": 7,
    "resourceId": {
      "kind": "youtube#video",
      "videoId": "P0Lsw4mNT8c"
    }
  },
  {
    "publishedAt": "2010-11-23T20:17:52.000Z",
    "channelId": "UCRyHBkIJ90SZNRyq1iVda5g",
    "title": "Dog Training Tutorial- HOUSETRAINING",
    "description": "House-training is often the first thing most dogs need to learn as they become part of a new family. Since this is something I have been getting numerous requests for - I decided to do a video on it. \r\n\r\nThere is some additional information on housetraining (tips) that I did not include in the video which is available on my Facebook page under the discussions section.\r\n\r\nLINKS\r\n---------\r\n\r\nFACEBOOK:\r\nhttp://bit.ly/bffyIl\r\n\r\nTWITTER:\r\nhttp://bit.ly/bupzxJ\r\n\r\nWEBSITE:\r\nwww.trainingpositive.com\r\n\r\nEMAIL:\r\ntab@traningpositive.com\r\n\r\n\r\n\r\n***NOTE***\r\nAll this information assumes that the dog in question is in good health and not suffering from any sickness/disease. Sometimes lack of bladder and bowel control is a result of ill health and if you suspect that this might be the case with your dog, please immediately consult your vet to rule out any such possibility.\r\n\r\nIt is also assumed that the dog is not struggling with fear-based elimination. As is often the case with some dogs, the goal in these instances would be to tackle the issue of fear/anxiety in addition to following all the advice given in the video. Unfortunately, the details in these situations are specific and unique to the dog - so the best approach is to contact a professional dog trainer who uses positive reinforcement only, to assess and determine the most appropriate course of action.",
    "thumbnails": {
      "default": {
        "url": "https://i.ytimg.com/vi/aRcAKOFE60M/default.jpg",
        "width": 120,
        "height": 90
      },
      "medium": {
        "url": "https://i.ytimg.com/vi/aRcAKOFE60M/mqdefault.jpg",
        "width": 320,
        "height": 180
      },
      "high": {
        "url": "https://i.ytimg.com/vi/aRcAKOFE60M/hqdefault.jpg",
        "width": 480,
        "height": 360
      }
    },
    "channelTitle": "Training Positive",
    "playlistId": "PL1912AA0D771586FA",
    "position": 8,
    "resourceId": {
      "kind": "youtube#video",
      "videoId": "aRcAKOFE60M"
    }
  },
  {
    "publishedAt": "2010-09-02T20:32:32.000Z",
    "channelId": "UCRyHBkIJ90SZNRyq1iVda5g",
    "title": "How To Train Puppy To Stop Biting!",
    "description": "My answer to a very popular viewer question:\r\n\r\nCurbing play-biting/mouthing/nipping is the top priority for new puppy parents. Consistency & a positive, gentle approach allows us to quickly & effectively teach a puppy to make the right choices. The emphasis is on teaching the puppy the appropriate behaviors, instead of correcting them for making reasonable mistakes. Remember that puppies love to interact with their human(s) in all sorts of ways, and learn from every interaction that we have with them. \r\n\r\nAs an alternative to using aversive punishment, this multi-faceted approach allows us to creatively connect with our dogs by employing positive reinforcement and harnessing a relationship that is based on trust & respect.\r\n\r\n If you like this video, please share it with anyone that you think might find it useful. If you have any other puppy questions/concerns, feel free to leave them in the comments & I will address them in the next puppy training video!",
    "thumbnails": {
      "default": {
        "url": "https://i.ytimg.com/vi/ZKjk84OkzcI/default.jpg",
        "width": 120,
        "height": 90
      },
      "medium": {
        "url": "https://i.ytimg.com/vi/ZKjk84OkzcI/mqdefault.jpg",
        "width": 320,
        "height": 180
      },
      "high": {
        "url": "https://i.ytimg.com/vi/ZKjk84OkzcI/hqdefault.jpg",
        "width": 480,
        "height": 360
      }
    },
    "channelTitle": "Training Positive",
    "playlistId": "PL1912AA0D771586FA",
    "position": 9,
    "resourceId": {
      "kind": "youtube#video",
      "videoId": "ZKjk84OkzcI"
    }
  },
  {
    "publishedAt": "2016-05-20T11:52:45.000Z",
    "channelId": "UCRyHBkIJ90SZNRyq1iVda5g",
    "title": "How To Train Any Dog Perfectly!",
    "description": "If you enjoyed this video, consider joining our campaign at www.patreon.com/trainingpositive \nor connect with us at\ninstagram: training positive\n-This video details the most important skills that you need to develop to successfully train any dog to do any behavior. If you are struggling with training your dog to do something, I would recommend improving one or more of the skills demonstrated.\n\nIf you have found this video useful, please check out my other complete tutorials on dog training. Learn everything from basic obedience to advanced tasks and impressive dog tricks! \n\nPlease be sure to subscribe and give this video a thumbs up to support positive dog training.\n\nConnect with us:\nwww.trainingpositive.com\nwww.facebook.com/trainingpositive\nwww.twitter.com/tab_",
    "thumbnails": {
      "default": {
        "url": "https://i.ytimg.com/vi/wT8SQusV8Uk/default.jpg",
        "width": 120,
        "height": 90
      },
      "medium": {
        "url": "https://i.ytimg.com/vi/wT8SQusV8Uk/mqdefault.jpg",
        "width": 320,
        "height": 180
      },
      "high": {
        "url": "https://i.ytimg.com/vi/wT8SQusV8Uk/hqdefault.jpg",
        "width": 480,
        "height": 360
      },
      "standard": {
        "url": "https://i.ytimg.com/vi/wT8SQusV8Uk/sddefault.jpg",
        "width": 640,
        "height": 480
      },
      "maxres": {
        "url": "https://i.ytimg.com/vi/wT8SQusV8Uk/maxresdefault.jpg",
        "width": 1280,
        "height": 720
      }
    },
    "channelTitle": "Training Positive",
    "playlistId": "PL1912AA0D771586FA",
    "position": 10,
    "resourceId": {
      "kind": "youtube#video",
      "videoId": "wT8SQusV8Uk"
    }
  },
  {
    "publishedAt": "2010-09-02T20:32:32.000Z",
    "channelId": "UCRyHBkIJ90SZNRyq1iVda5g",
    "title": "Dog Training Tutorial: Building Eye Contact & Attention!",
    "description": "Teaching a dog to make eye contact is extremely useful with a variety of applications. It is a good habit to encourage especially in puppies who often have the tendency to be rambunctious, particularly in the presence of delicious food/treats. Use this exercise to help build their focus & attention while demonstrating that rewards in their environment are unlocked through you. Ideally, we should always establish eye contact before giving them any obedience cue.\n\nThis is also a great exercise for anybody that is new to clicker training. It can be a little challenging at first to time your clicks and deliver the food rewards perfectly, so this is a good place to start and develop your skill.\nBe sure to repeat each step outlined in this video several times before raising the criteria and moving on to the next one. Some dogs are more persistent and require extra patience before they start to offer eye contact. This is where clicker training is awesome because it allows us to mark the exact millisecond when the desired behavior happens thus making it very easy for the dog to understand & learn. Always use high-value food rewards & always reward after each click so that it does not lose value.\n\nFinally, food rewards should be understood as a stepping stone to teaching something. This means that eventually, there is no need to reward your dog with food every time as they learn to offer the behavior by default.\n\nThank you for watching!",
    "thumbnails": {
      "default": {
        "url": "https://i.ytimg.com/vi/9oo6tcSxWWg/default.jpg",
        "width": 120,
        "height": 90
      },
      "medium": {
        "url": "https://i.ytimg.com/vi/9oo6tcSxWWg/mqdefault.jpg",
        "width": 320,
        "height": 180
      },
      "high": {
        "url": "https://i.ytimg.com/vi/9oo6tcSxWWg/hqdefault.jpg",
        "width": 480,
        "height": 360
      },
      "standard": {
        "url": "https://i.ytimg.com/vi/9oo6tcSxWWg/sddefault.jpg",
        "width": 640,
        "height": 480
      },
      "maxres": {
        "url": "https://i.ytimg.com/vi/9oo6tcSxWWg/maxresdefault.jpg",
        "width": 1280,
        "height": 720
      }
    },
    "channelTitle": "Training Positive",
    "playlistId": "PL1912AA0D771586FA",
    "position": 11,
    "resourceId": {
      "kind": "youtube#video",
      "videoId": "9oo6tcSxWWg"
    }
  },
  {
    "publishedAt": "2010-09-02T20:32:32.000Z",
    "channelId": "UCRyHBkIJ90SZNRyq1iVda5g",
    "title": "How To Train A Dog To Settle Down / Relax",
    "description": "This lays the foundation for a lot of different things in dog training. You can use this when guests come over and you need the dog to wait politely before they are greeted, or to provide the comfort of something familiar in a new environment. Once a dog understands the mat to be a positive place, they can experience physiological relaxation in places that may have otherwise been 'scary' or 'over-arousing'.\r\n\r\nI use this very frequently on a daily basis with Solea. She waits on her bed everyday as I prepare and serve her meal. In fact, often times she will go to it by herself as a way of telling me that it's getting close to dinner time!\r\n\r\nI also send her to her mat while I gather the things before we go out for practice, work or walks. This assures her that if she remains calm, good things will happen!\r\n\r\n-------------------------------------------------------------\n\r\nPlease SUBSCRIBE & help spread the magic of positive reinforcement, the only way that a dog deserves to learn.\r\n\r\n------------------------------------------------------------------------------",
    "thumbnails": {
      "default": {
        "url": "https://i.ytimg.com/vi/FRM0LeSBjxA/default.jpg",
        "width": 120,
        "height": 90
      },
      "medium": {
        "url": "https://i.ytimg.com/vi/FRM0LeSBjxA/mqdefault.jpg",
        "width": 320,
        "height": 180
      },
      "high": {
        "url": "https://i.ytimg.com/vi/FRM0LeSBjxA/hqdefault.jpg",
        "width": 480,
        "height": 360
      },
      "standard": {
        "url": "https://i.ytimg.com/vi/FRM0LeSBjxA/sddefault.jpg",
        "width": 640,
        "height": 480
      },
      "maxres": {
        "url": "https://i.ytimg.com/vi/FRM0LeSBjxA/maxresdefault.jpg",
        "width": 1280,
        "height": 720
      }
    },
    "channelTitle": "Training Positive",
    "playlistId": "PL1912AA0D771586FA",
    "position": 12,
    "resourceId": {
      "kind": "youtube#video",
      "videoId": "FRM0LeSBjxA"
    }
  },
  {
    "publishedAt": "2010-09-02T20:33:08.000Z",
    "channelId": "UCRyHBkIJ90SZNRyq1iVda5g",
    "title": "How to train a dog to \"Leave it\"",
    "description": "This is a success-guaranteed method of teaching a dog the \"leave it\" command. By being patient and shaping the dog's behavior step-by-step, we can teach them to ignore something that they want.\r\n\r\nThis video highlights the very beginning few steps of teaching this important cue. Further training is required to build on it and make it even more solid.\r\n\r\nThe dog that you see in this video is Charlie. He is a friend's dog who was kind enough to let me work with him for this video. The entire session was no more than 15 minutes. \r\n\r\n-------\r\n\r\nPlease SUBSCRIBE if you haven't & support positive dog training! Animals deserve to be treated with love & respect. \r\n\r\nThanks for watching!",
    "thumbnails": {
      "default": {
        "url": "https://i.ytimg.com/vi/asVQYYSWPJc/default.jpg",
        "width": 120,
        "height": 90
      },
      "medium": {
        "url": "https://i.ytimg.com/vi/asVQYYSWPJc/mqdefault.jpg",
        "width": 320,
        "height": 180
      },
      "high": {
        "url": "https://i.ytimg.com/vi/asVQYYSWPJc/hqdefault.jpg",
        "width": 480,
        "height": 360
      },
      "standard": {
        "url": "https://i.ytimg.com/vi/asVQYYSWPJc/sddefault.jpg",
        "width": 640,
        "height": 480
      },
      "maxres": {
        "url": "https://i.ytimg.com/vi/asVQYYSWPJc/maxresdefault.jpg",
        "width": 1280,
        "height": 720
      }
    },
    "channelTitle": "Training Positive",
    "playlistId": "PL1912AA0D771586FA",
    "position": 13,
    "resourceId": {
      "kind": "youtube#video",
      "videoId": "asVQYYSWPJc"
    }
  },
  {
    "publishedAt": "2010-09-02T20:33:08.000Z",
    "channelId": "UCRyHBkIJ90SZNRyq1iVda5g",
    "title": "Dog training tip: connecting with your dog.",
    "description": "Using food provides a great introduction for a dog to learning and shaping behaviors. However, it is easy to get caught in the trap of bribing a dog with food to get them to listen to you. Connecting with a dog with an enthusiastic attitude while using a variety of rewards will allow you to teach them with or without food...the fun for the dog comes from engaging with their parent...and not simply from what's in their pocket.\r\n\r\nI personally prefer to start teaching a new behavior with food, and then quickly change the reward to a toy or a game or some sort.\r\n\r\nOnce a dog and their human learn to communicate with each other, amazing things are guaranteed to happen.\r\n\r\n\r\nWhat is your dog's favorite game???",
    "thumbnails": {
      "default": {
        "url": "https://i.ytimg.com/vi/jhXEDqoNuPE/default.jpg",
        "width": 120,
        "height": 90
      },
      "medium": {
        "url": "https://i.ytimg.com/vi/jhXEDqoNuPE/mqdefault.jpg",
        "width": 320,
        "height": 180
      },
      "high": {
        "url": "https://i.ytimg.com/vi/jhXEDqoNuPE/hqdefault.jpg",
        "width": 480,
        "height": 360
      },
      "standard": {
        "url": "https://i.ytimg.com/vi/jhXEDqoNuPE/sddefault.jpg",
        "width": 640,
        "height": 480
      },
      "maxres": {
        "url": "https://i.ytimg.com/vi/jhXEDqoNuPE/maxresdefault.jpg",
        "width": 1280,
        "height": 720
      }
    },
    "channelTitle": "Training Positive",
    "playlistId": "PL1912AA0D771586FA",
    "position": 14,
    "resourceId": {
      "kind": "youtube#video",
      "videoId": "jhXEDqoNuPE"
    }
  },
  {
    "publishedAt": "2010-09-02T20:33:08.000Z",
    "channelId": "UCRyHBkIJ90SZNRyq1iVda5g",
    "title": "How to teach ANY dog the perfect STAY! (part 1)",
    "description": "This is the most important thing that a dog should know. In this video I will show you the fundamentals of how to begin to teach this. It is by no means entirely conclusive to the training that is involved in teaching stay. \r\n\r\nThe final step is to proof STAY around distractions, which I will discuss in the second part of this video.\r\nIf you have any questions or concerns about 'STAY', let me know in the comments so I can address it in the next video.\r\nThanks for watching and subscribing!",
    "thumbnails": {
      "default": {
        "url": "https://i.ytimg.com/vi/YtFR4che_D4/default.jpg",
        "width": 120,
        "height": 90
      },
      "medium": {
        "url": "https://i.ytimg.com/vi/YtFR4che_D4/mqdefault.jpg",
        "width": 320,
        "height": 180
      },
      "high": {
        "url": "https://i.ytimg.com/vi/YtFR4che_D4/hqdefault.jpg",
        "width": 480,
        "height": 360
      },
      "standard": {
        "url": "https://i.ytimg.com/vi/YtFR4che_D4/sddefault.jpg",
        "width": 640,
        "height": 480
      },
      "maxres": {
        "url": "https://i.ytimg.com/vi/YtFR4che_D4/maxresdefault.jpg",
        "width": 1280,
        "height": 720
      }
    },
    "channelTitle": "Training Positive",
    "playlistId": "PL1912AA0D771586FA",
    "position": 15,
    "resourceId": {
      "kind": "youtube#video",
      "videoId": "YtFR4che_D4"
    }
  },
  {
    "publishedAt": "2010-09-02T20:33:08.000Z",
    "channelId": "UCRyHBkIJ90SZNRyq1iVda5g",
    "title": "How to use 'TUG' as a reward in dog training!",
    "description": "A game of tug is one of many rewards that can be used when training a dog. It's also good to use with dogs that aren't very food-motivated.\r\n\r\nIt is best to play tug for short periods of time. Three 5 minutes sessions will be better than one 15 minute session. To maintain a high value for this game, leave the dog wanting more. Quit while you're ahead and it will be more of a reward. Always tug gently when playing and allow the dog to do most of the pulling.\r\n\r\nCaution: Avoid playing tug with younger puppies that are still teething as this can be painful and may cause injury.",
    "thumbnails": {
      "default": {
        "url": "https://i.ytimg.com/vi/SdsuEZ4lcD0/default.jpg",
        "width": 120,
        "height": 90
      },
      "medium": {
        "url": "https://i.ytimg.com/vi/SdsuEZ4lcD0/mqdefault.jpg",
        "width": 320,
        "height": 180
      },
      "high": {
        "url": "https://i.ytimg.com/vi/SdsuEZ4lcD0/hqdefault.jpg",
        "width": 480,
        "height": 360
      },
      "standard": {
        "url": "https://i.ytimg.com/vi/SdsuEZ4lcD0/sddefault.jpg",
        "width": 640,
        "height": 480
      },
      "maxres": {
        "url": "https://i.ytimg.com/vi/SdsuEZ4lcD0/maxresdefault.jpg",
        "width": 1280,
        "height": 720
      }
    },
    "channelTitle": "Training Positive",
    "playlistId": "PL1912AA0D771586FA",
    "position": 16,
    "resourceId": {
      "kind": "youtube#video",
      "videoId": "SdsuEZ4lcD0"
    }
  },
  {
    "publishedAt": "2010-09-02T20:33:08.000Z",
    "channelId": "UCRyHBkIJ90SZNRyq1iVda5g",
    "title": "How to teach ANY dog to Come when called!",
    "description": "New version of this old video: https://www.youtube.com/watch?v=nLo8YP4-D8Y\n\nThis is one of the most crucial commands that every dog should know. Dogs that are reliable off-leash get to have more freedom, fun and exercise. They secret to teaching this is to always set your dog up for success and then reward them for succeeding. Follow these few tips to get started. \n\nIf you have any questions, leave them in the comments section.\n\n\nI am posting a new video every week so be sure to subscribe if you haven't already.\n\nThank you for watching!",
    "thumbnails": {
      "default": {
        "url": "https://i.ytimg.com/vi/QonpHq930Rk/default.jpg",
        "width": 120,
        "height": 90
      },
      "medium": {
        "url": "https://i.ytimg.com/vi/QonpHq930Rk/mqdefault.jpg",
        "width": 320,
        "height": 180
      },
      "high": {
        "url": "https://i.ytimg.com/vi/QonpHq930Rk/hqdefault.jpg",
        "width": 480,
        "height": 360
      },
      "standard": {
        "url": "https://i.ytimg.com/vi/QonpHq930Rk/sddefault.jpg",
        "width": 640,
        "height": 480
      },
      "maxres": {
        "url": "https://i.ytimg.com/vi/QonpHq930Rk/maxresdefault.jpg",
        "width": 1280,
        "height": 720
      }
    },
    "channelTitle": "Training Positive",
    "playlistId": "PL1912AA0D771586FA",
    "position": 17,
    "resourceId": {
      "kind": "youtube#video",
      "videoId": "QonpHq930Rk"
    }
  },
  {
    "publishedAt": "2010-09-02T20:33:08.000Z",
    "channelId": "UCRyHBkIJ90SZNRyq1iVda5g",
    "title": "How to teach your dog to CALMLY walk on a LOOSE LEASH (part II)",
    "description": "This is the second part of my tutorial on walking your dog on a loose leash. In addition to teaching your dog that staying next to you is rewarding, you can take some measures to ensure that your dog remains calm and relaxed as you walk them. \r\n\r\nBe sure to check out the first video for a full explanation of how to conquer the LOOSE LEASH walk. Make sure to subscribe to my channel, as I am regularly posting dog training videos every week. \r\n\r\nIf you have any questions, or suggestions for future videos... leave them in the comments!\r\nEnjoy!",
    "thumbnails": {
      "default": {
        "url": "https://i.ytimg.com/vi/csfUmZ3xUY4/default.jpg",
        "width": 120,
        "height": 90
      },
      "medium": {
        "url": "https://i.ytimg.com/vi/csfUmZ3xUY4/mqdefault.jpg",
        "width": 320,
        "height": 180
      },
      "high": {
        "url": "https://i.ytimg.com/vi/csfUmZ3xUY4/hqdefault.jpg",
        "width": 480,
        "height": 360
      },
      "standard": {
        "url": "https://i.ytimg.com/vi/csfUmZ3xUY4/sddefault.jpg",
        "width": 640,
        "height": 480
      },
      "maxres": {
        "url": "https://i.ytimg.com/vi/csfUmZ3xUY4/maxresdefault.jpg",
        "width": 1280,
        "height": 720
      }
    },
    "channelTitle": "Training Positive",
    "playlistId": "PL1912AA0D771586FA",
    "position": 18,
    "resourceId": {
      "kind": "youtube#video",
      "videoId": "csfUmZ3xUY4"
    }
  },
  {
    "publishedAt": "2010-09-02T20:33:08.000Z",
    "channelId": "UCRyHBkIJ90SZNRyq1iVda5g",
    "title": "How to MOTIVATE your dog to listen!!!",
    "description": "I believe that our dogs want to listen to us and do as they're told. They just need to be motivated through a positive approach. Find out how you can do that in this video.\r\n\r\nLeave a comment telling me your opinion on the topic. Do you agree/disagree? And why? \r\n\r\nTo see more videos like this, be sure to hit the subscribe button. \r\n\r\nThanks for watching and have a great day!",
    "thumbnails": {
      "default": {
        "url": "https://i.ytimg.com/vi/1551HBaNwwk/default.jpg",
        "width": 120,
        "height": 90
      },
      "medium": {
        "url": "https://i.ytimg.com/vi/1551HBaNwwk/mqdefault.jpg",
        "width": 320,
        "height": 180
      },
      "high": {
        "url": "https://i.ytimg.com/vi/1551HBaNwwk/hqdefault.jpg",
        "width": 480,
        "height": 360
      },
      "standard": {
        "url": "https://i.ytimg.com/vi/1551HBaNwwk/sddefault.jpg",
        "width": 640,
        "height": 480
      },
      "maxres": {
        "url": "https://i.ytimg.com/vi/1551HBaNwwk/maxresdefault.jpg",
        "width": 1280,
        "height": 720
      }
    },
    "channelTitle": "Training Positive",
    "playlistId": "PL1912AA0D771586FA",
    "position": 19,
    "resourceId": {
      "kind": "youtube#video",
      "videoId": "1551HBaNwwk"
    }
  },
  {
    "publishedAt": "2010-09-02T20:33:08.000Z",
    "channelId": "UCRyHBkIJ90SZNRyq1iVda5g",
    "title": "How to teach your dog to STOP pulling! (part 1)",
    "description": "While there are many dogs that pull on walks, any dog can learn to walk calmly on a loose leash if we create a positive learning environment and teach them in the way that their minds understand. Find out how using positive reinforcement you can condition your dog to stay next to you and stop pulling when you take them for a walk.\r\n\r\n\r\n****This is one in a series of dog training tutorials that I have made. Clicker training is demonstrated in this video - but not fully explained. Check out this video for a better explanation of how it works:\r\n\r\nhttp://www.youtube.com/watch?v=1551HBaNwwk\r\n\r\n\r\n If you have questions about anything related to this video, let me know in the comments section.\r\n\r\nPlease remember to subscribe to my channel & support positive reinforcement as a way of teaching and training. With everything that they do for us, animals deserve nothing less than kindness & love.\r\n\r\nThank you for watching and have a nice day.\r\n--------------------------------------------\nPART II of this video: http://www.youtube.com/watch?v=csfUmZ3xUY4",
    "thumbnails": {
      "default": {
        "url": "https://i.ytimg.com/vi/NT8VDgR_Koo/default.jpg",
        "width": 120,
        "height": 90
      },
      "medium": {
        "url": "https://i.ytimg.com/vi/NT8VDgR_Koo/mqdefault.jpg",
        "width": 320,
        "height": 180
      },
      "high": {
        "url": "https://i.ytimg.com/vi/NT8VDgR_Koo/hqdefault.jpg",
        "width": 480,
        "height": 360
      },
      "standard": {
        "url": "https://i.ytimg.com/vi/NT8VDgR_Koo/sddefault.jpg",
        "width": 640,
        "height": 480
      },
      "maxres": {
        "url": "https://i.ytimg.com/vi/NT8VDgR_Koo/maxresdefault.jpg",
        "width": 1280,
        "height": 720
      }
    },
    "channelTitle": "Training Positive",
    "playlistId": "PL1912AA0D771586FA",
    "position": 20,
    "resourceId": {
      "kind": "youtube#video",
      "videoId": "NT8VDgR_Koo"
    }
  },
  {
    "publishedAt": "2010-09-02T20:33:08.000Z",
    "channelId": "UCRyHBkIJ90SZNRyq1iVda5g",
    "title": "How to teach any dog to FETCH!",
    "description": "UPDATE: There is a new and improved version of this video that you can watch here: https://www.youtube.com/watch?v=MGZwydOtPx0\n\nThis is one in a series of dog training tutorials that I have made. Clicker training is demonstrated in this video - but not fully explained. See my video on MOTIVATION for a more detailed explanation of using clickers and treats in training. \n\nFor an ALTERNATE approach to teaching your dog to hold objects, check out this video:\nhttp://www.youtube.com/watch?v=l1ZajuATmeA\n\nIf you have questions about anything related to this video, let me know in the comments section and I will reply as soon as I can. \n\n\nRemember to subscribe to my channel if you want to see more videos like this that I upload weekly.\n\nThank you for watching and have a nice day.",
    "thumbnails": {
      "default": {
        "url": "https://i.ytimg.com/vi/Ccw1uwvbx00/default.jpg",
        "width": 120,
        "height": 90
      },
      "medium": {
        "url": "https://i.ytimg.com/vi/Ccw1uwvbx00/mqdefault.jpg",
        "width": 320,
        "height": 180
      },
      "high": {
        "url": "https://i.ytimg.com/vi/Ccw1uwvbx00/hqdefault.jpg",
        "width": 480,
        "height": 360
      },
      "standard": {
        "url": "https://i.ytimg.com/vi/Ccw1uwvbx00/sddefault.jpg",
        "width": 640,
        "height": 480
      },
      "maxres": {
        "url": "https://i.ytimg.com/vi/Ccw1uwvbx00/maxresdefault.jpg",
        "width": 1280,
        "height": 720
      }
    },
    "channelTitle": "Training Positive",
    "playlistId": "PL1912AA0D771586FA",
    "position": 21,
    "resourceId": {
      "kind": "youtube#video",
      "videoId": "Ccw1uwvbx00"
    }
  },
  {
    "publishedAt": "2013-06-14T21:41:47.000Z",
    "channelId": "UCRyHBkIJ90SZNRyq1iVda5g",
    "title": "How To Train Your Dog: \"Come Here!\" PERFECTLY!!!",
    "description": "If you enjoyed this video, consider joining our campaign at www.patreon.com/trainingpositive \nor connect with us at\ninstagram: trainingpositive\n-This video is about reliably teaching your dog how to come to you when you call them. In order to teach this behavior, we have to first consider why a dog will NOT come when they are called, and then target our training specifically to address those issues. However, there are always exceptions to what works best for a particular dog and if your dog has specific needs, then it is important to consult a professional before trying these exercises.\n\nI will be posting a follow-up addendum to supplement this video in a few days, so please stay tuned while that is under work. Here are some additional videos that might be useful to watch related to this topic:\n\nTips on teaching 'come when called': http://www.youtube.com/watch?v=L5UyY_GPZAU\nWorking around distractions: http://www.youtube.com/watch?v=6mIw425kYk4\nEye contact exercise: http://www.youtube.com/watch?v=9oo6tcSxWWg\nOriginal 'come when called' tutorial: http://www.youtube.com/watch?v=QonpHq930Rk\n---------------\n\nYou can connect with us here:\n\nFacebook: www.facebook.com/trainingpositive\nTwitter: www.twitter.com/tab_\nInstagram: www.instagram.com/tab289\n\nPlease use the facebook page to get in touch about particular training issues.\n\nEmail (for business inquiries): tab@trainingpositive.com",
    "thumbnails": {
      "default": {
        "url": "https://i.ytimg.com/vi/nLo8YP4-D8Y/default.jpg",
        "width": 120,
        "height": 90
      },
      "medium": {
        "url": "https://i.ytimg.com/vi/nLo8YP4-D8Y/mqdefault.jpg",
        "width": 320,
        "height": 180
      },
      "high": {
        "url": "https://i.ytimg.com/vi/nLo8YP4-D8Y/hqdefault.jpg",
        "width": 480,
        "height": 360
      },
      "standard": {
        "url": "https://i.ytimg.com/vi/nLo8YP4-D8Y/sddefault.jpg",
        "width": 640,
        "height": 480
      },
      "maxres": {
        "url": "https://i.ytimg.com/vi/nLo8YP4-D8Y/maxresdefault.jpg",
        "width": 1280,
        "height": 720
      }
    },
    "channelTitle": "Training Positive",
    "playlistId": "PL1912AA0D771586FA",
    "position": 22,
    "resourceId": {
      "kind": "youtube#video",
      "videoId": "nLo8YP4-D8Y"
    }
  },
  {
    "publishedAt": "2010-09-02T20:33:08.000Z",
    "channelId": "UCRyHBkIJ90SZNRyq1iVda5g",
    "title": "How to train any puppy!!!",
    "description": "In this video, I address some of the most popular questions regarding puppy training. When should you start training a puppy? How do you teach a dog to want to be obedient? How to establish good habits, eliminate behavior problems and some house-training basics. \r\n\r\nThe key is to set your dog up to be successful without even giving them a chance to do the wrong thing. Puppies are curious and energetic which combined, may cause them to learn inappropriate behaviors. But if we actively supervise them and manage the environment, then they will quickly develop into well mannered members of your family.\r\n\r\nA positive attitude is the most significant tool when bonding with a puppy. By adding or removing positive reinforcement (whether it is attention, or food) we can effectively curb, guide & nurture behavior.\r\n\r\nThanks for watching & subscribing!\r\n\r\n***New video will be up later this week!***",
    "thumbnails": {
      "default": {
        "url": "https://i.ytimg.com/vi/dEy8lkQr86s/default.jpg",
        "width": 120,
        "height": 90
      },
      "medium": {
        "url": "https://i.ytimg.com/vi/dEy8lkQr86s/mqdefault.jpg",
        "width": 320,
        "height": 180
      },
      "high": {
        "url": "https://i.ytimg.com/vi/dEy8lkQr86s/hqdefault.jpg",
        "width": 480,
        "height": 360
      },
      "standard": {
        "url": "https://i.ytimg.com/vi/dEy8lkQr86s/sddefault.jpg",
        "width": 640,
        "height": 480
      },
      "maxres": {
        "url": "https://i.ytimg.com/vi/dEy8lkQr86s/maxresdefault.jpg",
        "width": 1280,
        "height": 720
      }
    },
    "channelTitle": "Training Positive",
    "playlistId": "PL1912AA0D771586FA",
    "position": 23,
    "resourceId": {
      "kind": "youtube#video",
      "videoId": "dEy8lkQr86s"
    }
  },
  {
    "publishedAt": "2018-02-17T23:06:50.000Z",
    "channelId": "UCRyHBkIJ90SZNRyq1iVda5g",
    "title": "Dog Training Tutorial: \"Between\" Position",
    "description": "This is a foundational obedience position that also has real world applications. Knowing how to quickly move your dog out of the way is an essential skill that can keep them safe and focused on you around distractions. Puppies as young as 8 weeks can start learning this using the positive reinforcement methods demonstrated in the video.\n\nIf you found this video useful, consider supporting our content on:\nwww.patreon.com/trainingpositive\nSupporters get access to exclusive weekly training tips\n--------------------------------------\nConnect with us:\nInstagram: trainingpositive\nFacebook: www.facebook.com/trainingpositive",
    "thumbnails": {
      "default": {
        "url": "https://i.ytimg.com/vi/HYdTjWFxGTE/default.jpg",
        "width": 120,
        "height": 90
      },
      "medium": {
        "url": "https://i.ytimg.com/vi/HYdTjWFxGTE/mqdefault.jpg",
        "width": 320,
        "height": 180
      },
      "high": {
        "url": "https://i.ytimg.com/vi/HYdTjWFxGTE/hqdefault.jpg",
        "width": 480,
        "height": 360
      },
      "standard": {
        "url": "https://i.ytimg.com/vi/HYdTjWFxGTE/sddefault.jpg",
        "width": 640,
        "height": 480
      },
      "maxres": {
        "url": "https://i.ytimg.com/vi/HYdTjWFxGTE/maxresdefault.jpg",
        "width": 1280,
        "height": 720
      }
    },
    "channelTitle": "Training Positive",
    "playlistId": "PL1912AA0D771586FA",
    "position": 24,
    "resourceId": {
      "kind": "youtube#video",
      "videoId": "HYdTjWFxGTE"
    }
  },
  {
    "publishedAt": "2013-06-14T21:41:47.000Z",
    "channelId": "UCRyHBkIJ90SZNRyq1iVda5g",
    "title": "Dog Training Tutorial: Greeting Visitors Calmly!",
    "description": "IMPORTANT INFORMATION:\n\nLearn how to teach any dog to be calm in the presence of a stimuli that causes increased arousal. \"Bad manners\" that dogs exhibit when it comes to meeting new people are just learned behaviors that we can re-teach. This method requires patience and the dedication to follow through the outlined procedure without ANY exceptions. I have used it effectively with a countless number of dogs with great success. \n\nKey Points:\n\n1) It may take longer for some dogs than others to reach a 'relaxed' state before you may start rewarding them. In this video it took only four and a half minutes, but it may take some dogs 30 minutes or more. However, if it is done properly as shown, within just a few sessions it can come down to as little as 1-2 mins for the dog to calm down. Eventually the dog will remain calm from the start. \n2) Notice that I was not giving excessive high-pitched verbal praise. The reason for this is that because some dogs will get aroused to hear such excitement. In this instance, a clicker works wonders, as it is not usually associated with an intense level of excitement.\n3) This is an extremely useful exercise for puppies! In my opinion it is essential for those dogs that are still learning how to politely interact with humans. \n4) You may repeat this exercise and have the guest leave for a few minutes, and then come back again. The more practice they have and the more they go through this simulation, the quicker and more powerful their learning will be!\n5) This exercise can also be modified to socialize a dog to most stimuli that cause hyper-arousal. For those of you asking me on Facebook about socializing your dogs to other pets and so on, you may use these principles and techniques to achieve the same results! \n\nConnect with me here\n--------------\nFACEBOOK:\nhttp://bit.ly/bffyIl\n\nTWITTER:\nhttp://bit.ly/bupzxJ\n\nWEBSITE:\nwww.trainingpositive.com\n\nEMAIL:\ntab@traningpositive.com",
    "thumbnails": {
      "default": {
        "url": "https://i.ytimg.com/vi/SrbA7cyp6K4/default.jpg",
        "width": 120,
        "height": 90
      },
      "medium": {
        "url": "https://i.ytimg.com/vi/SrbA7cyp6K4/mqdefault.jpg",
        "width": 320,
        "height": 180
      },
      "high": {
        "url": "https://i.ytimg.com/vi/SrbA7cyp6K4/hqdefault.jpg",
        "width": 480,
        "height": 360
      }
    },
    "channelTitle": "Training Positive",
    "playlistId": "PL1912AA0D771586FA",
    "position": 25,
    "resourceId": {
      "kind": "youtube#video",
      "videoId": "SrbA7cyp6K4"
    }
  },
  {
    "publishedAt": "2013-06-14T21:41:47.000Z",
    "channelId": "UCRyHBkIJ90SZNRyq1iVda5g",
    "title": "How To Raise a Well-Behaved Puppy! (MUST-SEE)",
    "description": "If you just got a puppy and are not sure where to start, this video is for you! Learn how to prevent problems from developing and have a well-behaved and intelligent companion. Please check out my other video tutorials on training to learn more about how to teach the essentials when it comes to raising any puppy of any breed.\r\n\r\nAlso, join us on Facebook for more regular updates on training tips and important information:\r\n\r\nwww.facebook.com/trainingpositive.com",
    "thumbnails": {
      "default": {
        "url": "https://i.ytimg.com/vi/zyoCFFQP8fw/default.jpg",
        "width": 120,
        "height": 90
      },
      "medium": {
        "url": "https://i.ytimg.com/vi/zyoCFFQP8fw/mqdefault.jpg",
        "width": 320,
        "height": 180
      },
      "high": {
        "url": "https://i.ytimg.com/vi/zyoCFFQP8fw/hqdefault.jpg",
        "width": 480,
        "height": 360
      }
    },
    "channelTitle": "Training Positive",
    "playlistId": "PL1912AA0D771586FA",
    "position": 26,
    "resourceId": {
      "kind": "youtube#video",
      "videoId": "zyoCFFQP8fw"
    }
  },
  {
    "publishedAt": "2013-06-14T21:41:47.000Z",
    "channelId": "UCRyHBkIJ90SZNRyq1iVda5g",
    "title": "The Science & Art of Training Dogs",
    "description": "It is my belief that to train any dog to be a spectacular learner, we must take two dimensions into account. The science is concerned more about using the best methodology and applying the most appropriate learning principles to ensure that the dog understands the task quickly and effectively. The art comes from knowing a dog, spending time with them, watching them and opening ourselves up to learn from them. Dog training is about learning - not just on the part of the dog, but also the human. \r\n\r\nI illustrate in today's video the importance and affect of considering both these disciplines and blending them together. \r\n\r\nJoin our facebook group to stay updated on videos, submit video ideas and connect/discuss with others different ideas and tips on training.\r\n\r\n-------------------\n\r\nFACEBOOK:\r\nhttp://bit.ly/bffyIl\r\n\r\nTWITTER:\r\nhttp://bit.ly/bupzxJ\r\n\r\nWEBSITE:\r\nwww.trainingpositive.com\r\n\r\nEMAIL:\r\ntab@trainingpositive.com",
    "thumbnails": {
      "default": {
        "url": "https://i.ytimg.com/vi/4794fn7ArGM/default.jpg",
        "width": 120,
        "height": 90
      },
      "medium": {
        "url": "https://i.ytimg.com/vi/4794fn7ArGM/mqdefault.jpg",
        "width": 320,
        "height": 180
      },
      "high": {
        "url": "https://i.ytimg.com/vi/4794fn7ArGM/hqdefault.jpg",
        "width": 480,
        "height": 360
      }
    },
    "channelTitle": "Training Positive",
    "playlistId": "PL1912AA0D771586FA",
    "position": 27,
    "resourceId": {
      "kind": "youtube#video",
      "videoId": "4794fn7ArGM"
    }
  },
  {
    "publishedAt": "2013-06-14T21:41:47.000Z",
    "channelId": "UCRyHBkIJ90SZNRyq1iVda5g",
    "title": "Dog Training Tips: Come When Called!",
    "description": "A simple exercise to teach our dogs that environmental distractions are not a cue that it's time to disconnect from us. The emphasis is on non-verbal communication and creating circumstances where the dog will be much more likely to come when they are called. Work on this one gradually and in conjunction with more 'formal' recalls around lesser distractions. \r\n\r\n------------\r\nEmail:\r\ntab@trainingpositive.com\r\n\r\nWebsite:\r\nhttp://www.trainingpositive.com\r\n\r\nFacebook:\r\nhttp://bit.ly/bffyIl\r\n\r\nTwitter:\r\nhttp://bit.ly/bupzxJ",
    "thumbnails": {
      "default": {
        "url": "https://i.ytimg.com/vi/L5UyY_GPZAU/default.jpg",
        "width": 120,
        "height": 90
      },
      "medium": {
        "url": "https://i.ytimg.com/vi/L5UyY_GPZAU/mqdefault.jpg",
        "width": 320,
        "height": 180
      },
      "high": {
        "url": "https://i.ytimg.com/vi/L5UyY_GPZAU/hqdefault.jpg",
        "width": 480,
        "height": 360
      }
    },
    "channelTitle": "Training Positive",
    "playlistId": "PL1912AA0D771586FA",
    "position": 28,
    "resourceId": {
      "kind": "youtube#video",
      "videoId": "L5UyY_GPZAU"
    }
  },
  {
    "publishedAt": "2013-06-14T21:41:47.000Z",
    "channelId": "UCRyHBkIJ90SZNRyq1iVda5g",
    "title": "Puppy Training - Viewer Q&A",
    "description": "The second episode in the series where I take the most popular questions that I receive and answer them in a video. I have several tutorials on cues that puppies should be taught and they address a lot of questions not answered in this video. I recently organised them all into one playlist, found here:\r\n\r\nhttp://bit.ly/b9cKnR\r\n\r\nA BIG thanks to everyone that subscribes, comments, favorites & likes my videos. It is this positive support that motivates me to make more. If you have sent me a message and I haven't replied back yet, I will try my best to catch up and respond as soon as possible. Thank you for being patient!",
    "thumbnails": {
      "default": {
        "url": "https://i.ytimg.com/vi/-yA-rqnKwxU/default.jpg",
        "width": 120,
        "height": 90
      },
      "medium": {
        "url": "https://i.ytimg.com/vi/-yA-rqnKwxU/mqdefault.jpg",
        "width": 320,
        "height": 180
      },
      "high": {
        "url": "https://i.ytimg.com/vi/-yA-rqnKwxU/hqdefault.jpg",
        "width": 480,
        "height": 360
      }
    },
    "channelTitle": "Training Positive",
    "playlistId": "PL1912AA0D771586FA",
    "position": 29,
    "resourceId": {
      "kind": "youtube#video",
      "videoId": "-yA-rqnKwxU"
    }
  },
  {
    "publishedAt": "2013-06-14T21:41:47.000Z",
    "channelId": "UCRyHBkIJ90SZNRyq1iVda5g",
    "title": "Popular Dog Training Questions Answered! (#1)",
    "description": "Introducing (possibly) a new segment that takes your popular training questions & concerns, and addresses them.\r\n\r\nFeel free to leave any questions or feedback. \r\nNew trick tutorial next week!",
    "thumbnails": {
      "default": {
        "url": "https://i.ytimg.com/vi/oMRvUpA8TBM/default.jpg",
        "width": 120,
        "height": 90
      },
      "medium": {
        "url": "https://i.ytimg.com/vi/oMRvUpA8TBM/mqdefault.jpg",
        "width": 320,
        "height": 180
      },
      "high": {
        "url": "https://i.ytimg.com/vi/oMRvUpA8TBM/hqdefault.jpg",
        "width": 480,
        "height": 360
      }
    },
    "channelTitle": "Training Positive",
    "playlistId": "PL1912AA0D771586FA",
    "position": 30,
    "resourceId": {
      "kind": "youtube#video",
      "videoId": "oMRvUpA8TBM"
    }
  },
  {
    "publishedAt": "2013-06-14T21:41:47.000Z",
    "channelId": "UCRyHBkIJ90SZNRyq1iVda5g",
    "title": "Clicker Dog Training: STOP Leash Pulling!",
    "description": "This is an exercise that supplements the techniques that I have presented on this topic already. It is not by any means a conclusive, end-all solution to stop leash-pulling. However, after having worked through everything else mentioned in my other videos on teaching loose leash walking, I find that a lot of dogs learn very quickly with this approach that they must not pull if they want to continue the walk. It is important to note however, that using food as a reward after every 'roundabout' may cause some dogs to pull just so they can come around for a reward. Using food rewards occasionally should eliminate this problem.\r\n\r\nLinks\r\n--------\r\n\r\nHow to teach Loose Leash Walking (PART 1):\r\n'Getting your dog to stay next to you'\r\nhttp://www.youtube.com/watch?v=NT8VDgR_Koo\r\n\r\nPART 2:\r\n'Helping your dog relax and be calm on walks'\r\nhttp://www.youtube.com/watch?v=csfUmZ3xUY4&feature=related\r\n\r\nHow to teach your dog the HEEL position demonstrated in this video:\r\nhttp://www.youtube.com/watch?v=dWb9_ZvsLbo",
    "thumbnails": {
      "default": {
        "url": "https://i.ytimg.com/vi/5O5VY7RbsdM/default.jpg",
        "width": 120,
        "height": 90
      },
      "medium": {
        "url": "https://i.ytimg.com/vi/5O5VY7RbsdM/mqdefault.jpg",
        "width": 320,
        "height": 180
      },
      "high": {
        "url": "https://i.ytimg.com/vi/5O5VY7RbsdM/hqdefault.jpg",
        "width": 480,
        "height": 360
      },
      "standard": {
        "url": "https://i.ytimg.com/vi/5O5VY7RbsdM/sddefault.jpg",
        "width": 640,
        "height": 480
      },
      "maxres": {
        "url": "https://i.ytimg.com/vi/5O5VY7RbsdM/maxresdefault.jpg",
        "width": 1280,
        "height": 720
      }
    },
    "channelTitle": "Training Positive",
    "playlistId": "PL1912AA0D771586FA",
    "position": 32,
    "resourceId": {
      "kind": "youtube#video",
      "videoId": "5O5VY7RbsdM"
    }
  },
  {
    "publishedAt": "2013-06-14T21:43:24.000Z",
    "channelId": "UCRyHBkIJ90SZNRyq1iVda5g",
    "title": "How To Train Puppy To Stop Biting!",
    "description": "My answer to a very popular viewer question:\r\n\r\nCurbing play-biting/mouthing/nipping is the top priority for new puppy parents. Consistency & a positive, gentle approach allows us to quickly & effectively teach a puppy to make the right choices. The emphasis is on teaching the puppy the appropriate behaviors, instead of correcting them for making reasonable mistakes. Remember that puppies love to interact with their human(s) in all sorts of ways, and learn from every interaction that we have with them. \r\n\r\nAs an alternative to using aversive punishment, this multi-faceted approach allows us to creatively connect with our dogs by employing positive reinforcement and harnessing a relationship that is based on trust & respect.\r\n\r\n If you like this video, please share it with anyone that you think might find it useful. If you have any other puppy questions/concerns, feel free to leave them in the comments & I will address them in the next puppy training video!",
    "thumbnails": {
      "default": {
        "url": "https://i.ytimg.com/vi/ZKjk84OkzcI/default.jpg",
        "width": 120,
        "height": 90
      },
      "medium": {
        "url": "https://i.ytimg.com/vi/ZKjk84OkzcI/mqdefault.jpg",
        "width": 320,
        "height": 180
      },
      "high": {
        "url": "https://i.ytimg.com/vi/ZKjk84OkzcI/hqdefault.jpg",
        "width": 480,
        "height": 360
      }
    },
    "channelTitle": "Training Positive",
    "playlistId": "PL1912AA0D771586FA",
    "position": 33,
    "resourceId": {
      "kind": "youtube#video",
      "videoId": "ZKjk84OkzcI"
    }
  },
  {
    "publishedAt": "2013-06-14T21:43:24.000Z",
    "channelId": "UCRyHBkIJ90SZNRyq1iVda5g",
    "title": "How To Train Your Dog: \"Come Here!\" PERFECTLY!!!",
    "description": "If you enjoyed this video, consider joining our campaign at www.patreon.com/trainingpositive \nor connect with us at\ninstagram: trainingpositive\n-This video is about reliably teaching your dog how to come to you when you call them. In order to teach this behavior, we have to first consider why a dog will NOT come when they are called, and then target our training specifically to address those issues. However, there are always exceptions to what works best for a particular dog and if your dog has specific needs, then it is important to consult a professional before trying these exercises.\n\nI will be posting a follow-up addendum to supplement this video in a few days, so please stay tuned while that is under work. Here are some additional videos that might be useful to watch related to this topic:\n\nTips on teaching 'come when called': http://www.youtube.com/watch?v=L5UyY_GPZAU\nWorking around distractions: http://www.youtube.com/watch?v=6mIw425kYk4\nEye contact exercise: http://www.youtube.com/watch?v=9oo6tcSxWWg\nOriginal 'come when called' tutorial: http://www.youtube.com/watch?v=QonpHq930Rk\n---------------\n\nYou can connect with us here:\n\nFacebook: www.facebook.com/trainingpositive\nTwitter: www.twitter.com/tab_\nInstagram: www.instagram.com/tab289\n\nPlease use the facebook page to get in touch about particular training issues.\n\nEmail (for business inquiries): tab@trainingpositive.com",
    "thumbnails": {
      "default": {
        "url": "https://i.ytimg.com/vi/nLo8YP4-D8Y/default.jpg",
        "width": 120,
        "height": 90
      },
      "medium": {
        "url": "https://i.ytimg.com/vi/nLo8YP4-D8Y/mqdefault.jpg",
        "width": 320,
        "height": 180
      },
      "high": {
        "url": "https://i.ytimg.com/vi/nLo8YP4-D8Y/hqdefault.jpg",
        "width": 480,
        "height": 360
      },
      "standard": {
        "url": "https://i.ytimg.com/vi/nLo8YP4-D8Y/sddefault.jpg",
        "width": 640,
        "height": 480
      },
      "maxres": {
        "url": "https://i.ytimg.com/vi/nLo8YP4-D8Y/maxresdefault.jpg",
        "width": 1280,
        "height": 720
      }
    },
    "channelTitle": "Training Positive",
    "playlistId": "PL1912AA0D771586FA",
    "position": 34,
    "resourceId": {
      "kind": "youtube#video",
      "videoId": "nLo8YP4-D8Y"
    }
  },
  {
    "publishedAt": "2013-06-14T21:43:24.000Z",
    "channelId": "UCRyHBkIJ90SZNRyq1iVda5g",
    "title": "Dog Training Tutorial: Greeting Visitors Calmly!",
    "description": "IMPORTANT INFORMATION:\n\nLearn how to teach any dog to be calm in the presence of a stimuli that causes increased arousal. \"Bad manners\" that dogs exhibit when it comes to meeting new people are just learned behaviors that we can re-teach. This method requires patience and the dedication to follow through the outlined procedure without ANY exceptions. I have used it effectively with a countless number of dogs with great success. \n\nKey Points:\n\n1) It may take longer for some dogs than others to reach a 'relaxed' state before you may start rewarding them. In this video it took only four and a half minutes, but it may take some dogs 30 minutes or more. However, if it is done properly as shown, within just a few sessions it can come down to as little as 1-2 mins for the dog to calm down. Eventually the dog will remain calm from the start. \n2) Notice that I was not giving excessive high-pitched verbal praise. The reason for this is that because some dogs will get aroused to hear such excitement. In this instance, a clicker works wonders, as it is not usually associated with an intense level of excitement.\n3) This is an extremely useful exercise for puppies! In my opinion it is essential for those dogs that are still learning how to politely interact with humans. \n4) You may repeat this exercise and have the guest leave for a few minutes, and then come back again. The more practice they have and the more they go through this simulation, the quicker and more powerful their learning will be!\n5) This exercise can also be modified to socialize a dog to most stimuli that cause hyper-arousal. For those of you asking me on Facebook about socializing your dogs to other pets and so on, you may use these principles and techniques to achieve the same results! \n\nConnect with me here\n--------------\nFACEBOOK:\nhttp://bit.ly/bffyIl\n\nTWITTER:\nhttp://bit.ly/bupzxJ\n\nWEBSITE:\nwww.trainingpositive.com\n\nEMAIL:\ntab@traningpositive.com",
    "thumbnails": {
      "default": {
        "url": "https://i.ytimg.com/vi/SrbA7cyp6K4/default.jpg",
        "width": 120,
        "height": 90
      },
      "medium": {
        "url": "https://i.ytimg.com/vi/SrbA7cyp6K4/mqdefault.jpg",
        "width": 320,
        "height": 180
      },
      "high": {
        "url": "https://i.ytimg.com/vi/SrbA7cyp6K4/hqdefault.jpg",
        "width": 480,
        "height": 360
      }
    },
    "channelTitle": "Training Positive",
    "playlistId": "PL1912AA0D771586FA",
    "position": 35,
    "resourceId": {
      "kind": "youtube#video",
      "videoId": "SrbA7cyp6K4"
    }
  },
  {
    "publishedAt": "2013-06-14T21:43:24.000Z",
    "channelId": "UCRyHBkIJ90SZNRyq1iVda5g",
    "title": "Dog Behavior Problems & What You Can Do!",
    "description": "This video condenses what I have witnessed as being the most prevalent ways that behavior problems develop in dogs, how they are maintained, and how they can ultimately be overcome. It is not a comprehensive presentation, there are many exceptions to these rules - but for many people this is most often the case. \n\n**IMPORTANT: All of the ideas in this video are assuming that proper and appropriate exercise needs are addressed! For many active breeds, this is by far the most significant factor that affects behavior, so the first point of correcting problems is making sure that physical activity needs are addressed with regard to the breed in question!***\n\n\nIf you found this video useful, please like and share it to support compassionate and free dog training information. \n\nFor COMPLETE and FREE dog training tutorials, check out my channel and learn how to train any dog - to do anything!\n\n------------\n\nFollow and connect with us here:\n\nFACEBOOK: www.facebook.com/trainingpositive\nINSTAGRAM: www.instagram.com/tab289\n\n--------------\nPlease direct all business inquiries to: tab@trainingpositive.com",
    "thumbnails": {
      "default": {
        "url": "https://i.ytimg.com/vi/78SgVSBLdYE/default.jpg",
        "width": 120,
        "height": 90
      },
      "medium": {
        "url": "https://i.ytimg.com/vi/78SgVSBLdYE/mqdefault.jpg",
        "width": 320,
        "height": 180
      },
      "high": {
        "url": "https://i.ytimg.com/vi/78SgVSBLdYE/hqdefault.jpg",
        "width": 480,
        "height": 360
      }
    },
    "channelTitle": "Training Positive",
    "playlistId": "PL1912AA0D771586FA",
    "position": 36,
    "resourceId": {
      "kind": "youtube#video",
      "videoId": "78SgVSBLdYE"
    }
  },
  {
    "publishedAt": "2013-06-14T21:43:24.000Z",
    "channelId": "UCRyHBkIJ90SZNRyq1iVda5g",
    "title": "How To Train Calmness In Dogs (Part II)",
    "description": "This video is the sequel to the first part in this series. \nLearn how to train a couple of 'calming behaviors', which also double as cute dog tricks in this tutorial. This should provide you with a solid set of tools that can be applied to helping your dog get comfortable with obedience and taking cues around distractions. If you haven't worked through my previous tutorials on 'distractions', I highly recommend starting there and working your way up to these behaviors.",
    "thumbnails": {
      "default": {
        "url": "https://i.ytimg.com/vi/OCk5VxHZ398/default.jpg",
        "width": 120,
        "height": 90
      },
      "medium": {
        "url": "https://i.ytimg.com/vi/OCk5VxHZ398/mqdefault.jpg",
        "width": 320,
        "height": 180
      },
      "high": {
        "url": "https://i.ytimg.com/vi/OCk5VxHZ398/hqdefault.jpg",
        "width": 480,
        "height": 360
      },
      "standard": {
        "url": "https://i.ytimg.com/vi/OCk5VxHZ398/sddefault.jpg",
        "width": 640,
        "height": 480
      },
      "maxres": {
        "url": "https://i.ytimg.com/vi/OCk5VxHZ398/maxresdefault.jpg",
        "width": 1280,
        "height": 720
      }
    },
    "channelTitle": "Training Positive",
    "playlistId": "PL1912AA0D771586FA",
    "position": 37,
    "resourceId": {
      "kind": "youtube#video",
      "videoId": "OCk5VxHZ398"
    }
  },
  {
    "publishedAt": "2013-06-14T21:43:24.000Z",
    "channelId": "UCRyHBkIJ90SZNRyq1iVda5g",
    "title": "How To Train Calmness in Dogs! (Part I)",
    "description": "In this video, I offer some tip and techniques for how calmness can be trained in dogs over time. It is important to note that these techniques need to be used in conjunction with regular scheduled positive training sessions, as well as exhaustive daily exercise. There are no shortcuts to having a calm and obedient dog, but it's possible to achieve for even the busiest people if time is invested appropriately. \n\nPlease be sure to watch the second part of this video series for a complete instructional tutorial on 'calming behaviors'.\n\n\nPART II: http://www.youtube.com/watch?v=OCk5VxHZ398&list=UURyHBkIJ90SZNRyq1iVda5g&index=1&feature=plcp\n\nFacebook: www.facebook.com/trainingpositive",
    "thumbnails": {
      "default": {
        "url": "https://i.ytimg.com/vi/UxMHwrSqD8Y/default.jpg",
        "width": 120,
        "height": 90
      },
      "medium": {
        "url": "https://i.ytimg.com/vi/UxMHwrSqD8Y/mqdefault.jpg",
        "width": 320,
        "height": 180
      },
      "high": {
        "url": "https://i.ytimg.com/vi/UxMHwrSqD8Y/hqdefault.jpg",
        "width": 480,
        "height": 360
      },
      "standard": {
        "url": "https://i.ytimg.com/vi/UxMHwrSqD8Y/sddefault.jpg",
        "width": 640,
        "height": 480
      },
      "maxres": {
        "url": "https://i.ytimg.com/vi/UxMHwrSqD8Y/maxresdefault.jpg",
        "width": 1280,
        "height": 720
      }
    },
    "channelTitle": "Training Positive",
    "playlistId": "PL1912AA0D771586FA",
    "position": 38,
    "resourceId": {
      "kind": "youtube#video",
      "videoId": "UxMHwrSqD8Y"
    }
  },
  {
    "publishedAt": "2013-06-14T21:43:24.000Z",
    "channelId": "UCRyHBkIJ90SZNRyq1iVda5g",
    "title": "How To Raise a Well-Behaved Puppy! (MUST-SEE)",
    "description": "If you just got a puppy and are not sure where to start, this video is for you! Learn how to prevent problems from developing and have a well-behaved and intelligent companion. Please check out my other video tutorials on training to learn more about how to teach the essentials when it comes to raising any puppy of any breed.\r\n\r\nAlso, join us on Facebook for more regular updates on training tips and important information:\r\n\r\nwww.facebook.com/trainingpositive.com",
    "thumbnails": {
      "default": {
        "url": "https://i.ytimg.com/vi/zyoCFFQP8fw/default.jpg",
        "width": 120,
        "height": 90
      },
      "medium": {
        "url": "https://i.ytimg.com/vi/zyoCFFQP8fw/mqdefault.jpg",
        "width": 320,
        "height": 180
      },
      "high": {
        "url": "https://i.ytimg.com/vi/zyoCFFQP8fw/hqdefault.jpg",
        "width": 480,
        "height": 360
      }
    },
    "channelTitle": "Training Positive",
    "playlistId": "PL1912AA0D771586FA",
    "position": 39,
    "resourceId": {
      "kind": "youtube#video",
      "videoId": "zyoCFFQP8fw"
    }
  },
  {
    "publishedAt": "2013-06-14T21:43:24.000Z",
    "channelId": "UCRyHBkIJ90SZNRyq1iVda5g",
    "title": "Dog Training Tutorial: Greeting Visitors Calmly!",
    "description": "IMPORTANT INFORMATION:\n\nLearn how to teach any dog to be calm in the presence of a stimuli that causes increased arousal. \"Bad manners\" that dogs exhibit when it comes to meeting new people are just learned behaviors that we can re-teach. This method requires patience and the dedication to follow through the outlined procedure without ANY exceptions. I have used it effectively with a countless number of dogs with great success. \n\nKey Points:\n\n1) It may take longer for some dogs than others to reach a 'relaxed' state before you may start rewarding them. In this video it took only four and a half minutes, but it may take some dogs 30 minutes or more. However, if it is done properly as shown, within just a few sessions it can come down to as little as 1-2 mins for the dog to calm down. Eventually the dog will remain calm from the start. \n2) Notice that I was not giving excessive high-pitched verbal praise. The reason for this is that because some dogs will get aroused to hear such excitement. In this instance, a clicker works wonders, as it is not usually associated with an intense level of excitement.\n3) This is an extremely useful exercise for puppies! In my opinion it is essential for those dogs that are still learning how to politely interact with humans. \n4) You may repeat this exercise and have the guest leave for a few minutes, and then come back again. The more practice they have and the more they go through this simulation, the quicker and more powerful their learning will be!\n5) This exercise can also be modified to socialize a dog to most stimuli that cause hyper-arousal. For those of you asking me on Facebook about socializing your dogs to other pets and so on, you may use these principles and techniques to achieve the same results! \n\nConnect with me here\n--------------\nFACEBOOK:\nhttp://bit.ly/bffyIl\n\nTWITTER:\nhttp://bit.ly/bupzxJ\n\nWEBSITE:\nwww.trainingpositive.com\n\nEMAIL:\ntab@traningpositive.com",
    "thumbnails": {
      "default": {
        "url": "https://i.ytimg.com/vi/SrbA7cyp6K4/default.jpg",
        "width": 120,
        "height": 90
      },
      "medium": {
        "url": "https://i.ytimg.com/vi/SrbA7cyp6K4/mqdefault.jpg",
        "width": 320,
        "height": 180
      },
      "high": {
        "url": "https://i.ytimg.com/vi/SrbA7cyp6K4/hqdefault.jpg",
        "width": 480,
        "height": 360
      }
    },
    "channelTitle": "Training Positive",
    "playlistId": "PL1912AA0D771586FA",
    "position": 40,
    "resourceId": {
      "kind": "youtube#video",
      "videoId": "SrbA7cyp6K4"
    }
  },
  {
    "publishedAt": "2013-06-14T21:43:24.000Z",
    "channelId": "UCRyHBkIJ90SZNRyq1iVda5g",
    "title": "How To Train Your Dog: Advanced Targeting/Head Movement",
    "description": "TOO EASY? TRY THIS!\r\n\r\nThis tutorial is for those trainers who have worked up a good repertoire of behaviors with their dogs. If you want to make this even more challenging, I highly recommend adding MORE behaviors to the chain demonstrated in this video. Here is a sample chain of behaviors I would suggest:\r\n\r\nHold it....Drop it....Target...Down....Stand....Down...Target....Watch me...Sit....Hold it...Bring it...Drop it...Watch me....Sit.\r\n\r\nIf you can complete the above chain perfectly (giving each cue only once), you are demonstrating an INCREDIBLE connection with your dog and an extremely solid understanding of cues. Good job!\r\n\r\nI would love to see a video of someone demonstrating this chain. Please post it as a video response when you complete it! All the best!\r\n\r\n\r\n--------\r\n\r\nPlease \"like\" my facebook page for regular updates, training tips, and exclusive videos:\r\n\r\nwww.facebook.com/trainingpositive",
    "thumbnails": {
      "default": {
        "url": "https://i.ytimg.com/vi/QuVnV_XEU-Q/default.jpg",
        "width": 120,
        "height": 90
      },
      "medium": {
        "url": "https://i.ytimg.com/vi/QuVnV_XEU-Q/mqdefault.jpg",
        "width": 320,
        "height": 180
      },
      "high": {
        "url": "https://i.ytimg.com/vi/QuVnV_XEU-Q/hqdefault.jpg",
        "width": 480,
        "height": 360
      },
      "standard": {
        "url": "https://i.ytimg.com/vi/QuVnV_XEU-Q/sddefault.jpg",
        "width": 640,
        "height": 480
      },
      "maxres": {
        "url": "https://i.ytimg.com/vi/QuVnV_XEU-Q/maxresdefault.jpg",
        "width": 1280,
        "height": 720
      }
    },
    "channelTitle": "Training Positive",
    "playlistId": "PL1912AA0D771586FA",
    "position": 41,
    "resourceId": {
      "kind": "youtube#video",
      "videoId": "QuVnV_XEU-Q"
    }
  },
  {
    "publishedAt": "2013-06-14T21:43:24.000Z",
    "channelId": "UCRyHBkIJ90SZNRyq1iVda5g",
    "title": "How To Train Any Dog To Heel PERFECTLY!",
    "description": "If you enjoyed this video, consider joining our campaign at www.patreon.com/trainingpositive \nor connect with us at\ninstagram: trainingpositive\n-\n*ADDED* 2/12/2018 - I am currently working on the next step from video. Stay tuned for the update!\n\n\nTraining a dog to heel is a great exercise which develops several different capacities in a dog. In addition to furthering their learning ability and body awareness, it also aids in teaching them to communicate better with their human. It should be taught like any other trick or behavior, by breaking it up into small successive steps and making it a highly rewarding experience. \n\nIt is normal for it to take several days and even weeks to get the kind of results demonstrated in this video. Remember to work on it consistently and always allow the dog to be successful. If they are unable to meet reward criteria, then as trainers we must lower criteria, making it easier for several sessions before making it more difficult once again. If this advice is followed, just about any dog can learn to do this.\n\n\n\n\nConnect with me here!\n--------------\nPATREON:\nwww.patreon.com/trainingpositive\n\nFACEBOOK:\nhttp://www.facebook.com/trainingpositive\n\nTWITTER:\nhttp://bit.ly/bupzxJ\n\nWEBSITE:\nwww.trainingpositive.com",
    "thumbnails": {
      "default": {
        "url": "https://i.ytimg.com/vi/elKsANmYVTI/default.jpg",
        "width": 120,
        "height": 90
      },
      "medium": {
        "url": "https://i.ytimg.com/vi/elKsANmYVTI/mqdefault.jpg",
        "width": 320,
        "height": 180
      },
      "high": {
        "url": "https://i.ytimg.com/vi/elKsANmYVTI/hqdefault.jpg",
        "width": 480,
        "height": 360
      }
    },
    "channelTitle": "Training Positive",
    "playlistId": "PL1912AA0D771586FA",
    "position": 42,
    "resourceId": {
      "kind": "youtube#video",
      "videoId": "elKsANmYVTI"
    }
  },
  {
    "publishedAt": "2013-06-14T21:43:24.000Z",
    "channelId": "UCRyHBkIJ90SZNRyq1iVda5g",
    "title": "The Science & Art of Training Dogs",
    "description": "It is my belief that to train any dog to be a spectacular learner, we must take two dimensions into account. The science is concerned more about using the best methodology and applying the most appropriate learning principles to ensure that the dog understands the task quickly and effectively. The art comes from knowing a dog, spending time with them, watching them and opening ourselves up to learn from them. Dog training is about learning - not just on the part of the dog, but also the human. \r\n\r\nI illustrate in today's video the importance and affect of considering both these disciplines and blending them together. \r\n\r\nJoin our facebook group to stay updated on videos, submit video ideas and connect/discuss with others different ideas and tips on training.\r\n\r\n-------------------\n\r\nFACEBOOK:\r\nhttp://bit.ly/bffyIl\r\n\r\nTWITTER:\r\nhttp://bit.ly/bupzxJ\r\n\r\nWEBSITE:\r\nwww.trainingpositive.com\r\n\r\nEMAIL:\r\ntab@trainingpositive.com",
    "thumbnails": {
      "default": {
        "url": "https://i.ytimg.com/vi/4794fn7ArGM/default.jpg",
        "width": 120,
        "height": 90
      },
      "medium": {
        "url": "https://i.ytimg.com/vi/4794fn7ArGM/mqdefault.jpg",
        "width": 320,
        "height": 180
      },
      "high": {
        "url": "https://i.ytimg.com/vi/4794fn7ArGM/hqdefault.jpg",
        "width": 480,
        "height": 360
      }
    },
    "channelTitle": "Training Positive",
    "playlistId": "PL1912AA0D771586FA",
    "position": 43,
    "resourceId": {
      "kind": "youtube#video",
      "videoId": "4794fn7ArGM"
    }
  },
  {
    "publishedAt": "2013-06-14T21:43:24.000Z",
    "channelId": "UCRyHBkIJ90SZNRyq1iVda5g",
    "title": "Dog Training Tutorial - Distractions PART II (Healing Reactivity)",
    "description": "Training a dog to be comfortable and calm around distractions is the goal here. Always be very attentive & read the dog's body language so that if any adjustments need to be made to the training, then they can be made. Helping our dogs make the right connections is the foundation of allowing them to be reliable around distractions. So far, we have considered relatively passive exercises. Stay tuned for more active and engaging work around distractions.\r\n\r\n------------\r\nEMAIL:\r\ntab@trainingpositive.com\r\n\r\nWEBSITE:\r\nhttp://www.trainingpositive.com\r\n\r\nFACEBOOK:\r\nhttp://bit.ly/bffyIl\r\n\r\nTWITTER:\r\nhttp://bit.ly/bupzxJ",
    "thumbnails": {
      "default": {
        "url": "https://i.ytimg.com/vi/muJDkV_KPEU/default.jpg",
        "width": 120,
        "height": 90
      },
      "medium": {
        "url": "https://i.ytimg.com/vi/muJDkV_KPEU/mqdefault.jpg",
        "width": 320,
        "height": 180
      },
      "high": {
        "url": "https://i.ytimg.com/vi/muJDkV_KPEU/hqdefault.jpg",
        "width": 480,
        "height": 360
      }
    },
    "channelTitle": "Training Positive",
    "playlistId": "PL1912AA0D771586FA",
    "position": 44,
    "resourceId": {
      "kind": "youtube#video",
      "videoId": "muJDkV_KPEU"
    }
  },
  {
    "publishedAt": "2013-06-14T21:43:24.000Z",
    "channelId": "UCRyHBkIJ90SZNRyq1iVda5g",
    "title": "Dog Training Tips: Come When Called!",
    "description": "A simple exercise to teach our dogs that environmental distractions are not a cue that it's time to disconnect from us. The emphasis is on non-verbal communication and creating circumstances where the dog will be much more likely to come when they are called. Work on this one gradually and in conjunction with more 'formal' recalls around lesser distractions. \r\n\r\n------------\r\nEmail:\r\ntab@trainingpositive.com\r\n\r\nWebsite:\r\nhttp://www.trainingpositive.com\r\n\r\nFacebook:\r\nhttp://bit.ly/bffyIl\r\n\r\nTwitter:\r\nhttp://bit.ly/bupzxJ",
    "thumbnails": {
      "default": {
        "url": "https://i.ytimg.com/vi/L5UyY_GPZAU/default.jpg",
        "width": 120,
        "height": 90
      },
      "medium": {
        "url": "https://i.ytimg.com/vi/L5UyY_GPZAU/mqdefault.jpg",
        "width": 320,
        "height": 180
      },
      "high": {
        "url": "https://i.ytimg.com/vi/L5UyY_GPZAU/hqdefault.jpg",
        "width": 480,
        "height": 360
      }
    },
    "channelTitle": "Training Positive",
    "playlistId": "PL1912AA0D771586FA",
    "position": 45,
    "resourceId": {
      "kind": "youtube#video",
      "videoId": "L5UyY_GPZAU"
    }
  },
  {
    "publishedAt": "2013-06-14T21:43:24.000Z",
    "channelId": "UCRyHBkIJ90SZNRyq1iVda5g",
    "title": "Puppy Training - Viewer Q&A",
    "description": "The second episode in the series where I take the most popular questions that I receive and answer them in a video. I have several tutorials on cues that puppies should be taught and they address a lot of questions not answered in this video. I recently organised them all into one playlist, found here:\r\n\r\nhttp://bit.ly/b9cKnR\r\n\r\nA BIG thanks to everyone that subscribes, comments, favorites & likes my videos. It is this positive support that motivates me to make more. If you have sent me a message and I haven't replied back yet, I will try my best to catch up and respond as soon as possible. Thank you for being patient!",
    "thumbnails": {
      "default": {
        "url": "https://i.ytimg.com/vi/-yA-rqnKwxU/default.jpg",
        "width": 120,
        "height": 90
      },
      "medium": {
        "url": "https://i.ytimg.com/vi/-yA-rqnKwxU/mqdefault.jpg",
        "width": 320,
        "height": 180
      },
      "high": {
        "url": "https://i.ytimg.com/vi/-yA-rqnKwxU/hqdefault.jpg",
        "width": 480,
        "height": 360
      }
    },
    "channelTitle": "Training Positive",
    "playlistId": "PL1912AA0D771586FA",
    "position": 46,
    "resourceId": {
      "kind": "youtube#video",
      "videoId": "-yA-rqnKwxU"
    }
  },
  {
    "publishedAt": "2013-06-14T21:43:24.000Z",
    "channelId": "UCRyHBkIJ90SZNRyq1iVda5g",
    "title": "Popular Dog Training Questions Answered! (#1)",
    "description": "Introducing (possibly) a new segment that takes your popular training questions & concerns, and addresses them.\r\n\r\nFeel free to leave any questions or feedback. \r\nNew trick tutorial next week!",
    "thumbnails": {
      "default": {
        "url": "https://i.ytimg.com/vi/oMRvUpA8TBM/default.jpg",
        "width": 120,
        "height": 90
      },
      "medium": {
        "url": "https://i.ytimg.com/vi/oMRvUpA8TBM/mqdefault.jpg",
        "width": 320,
        "height": 180
      },
      "high": {
        "url": "https://i.ytimg.com/vi/oMRvUpA8TBM/hqdefault.jpg",
        "width": 480,
        "height": 360
      }
    },
    "channelTitle": "Training Positive",
    "playlistId": "PL1912AA0D771586FA",
    "position": 47,
    "resourceId": {
      "kind": "youtube#video",
      "videoId": "oMRvUpA8TBM"
    }
  },
  {
    "publishedAt": "2013-06-14T21:43:24.000Z",
    "channelId": "UCRyHBkIJ90SZNRyq1iVda5g",
    "title": "Clicker Dog Training: STOP Leash Pulling!",
    "description": "This is an exercise that supplements the techniques that I have presented on this topic already. It is not by any means a conclusive, end-all solution to stop leash-pulling. However, after having worked through everything else mentioned in my other videos on teaching loose leash walking, I find that a lot of dogs learn very quickly with this approach that they must not pull if they want to continue the walk. It is important to note however, that using food as a reward after every 'roundabout' may cause some dogs to pull just so they can come around for a reward. Using food rewards occasionally should eliminate this problem.\r\n\r\nLinks\r\n--------\r\n\r\nHow to teach Loose Leash Walking (PART 1):\r\n'Getting your dog to stay next to you'\r\nhttp://www.youtube.com/watch?v=NT8VDgR_Koo\r\n\r\nPART 2:\r\n'Helping your dog relax and be calm on walks'\r\nhttp://www.youtube.com/watch?v=csfUmZ3xUY4&feature=related\r\n\r\nHow to teach your dog the HEEL position demonstrated in this video:\r\nhttp://www.youtube.com/watch?v=dWb9_ZvsLbo",
    "thumbnails": {
      "default": {
        "url": "https://i.ytimg.com/vi/5O5VY7RbsdM/default.jpg",
        "width": 120,
        "height": 90
      },
      "medium": {
        "url": "https://i.ytimg.com/vi/5O5VY7RbsdM/mqdefault.jpg",
        "width": 320,
        "height": 180
      },
      "high": {
        "url": "https://i.ytimg.com/vi/5O5VY7RbsdM/hqdefault.jpg",
        "width": 480,
        "height": 360
      },
      "standard": {
        "url": "https://i.ytimg.com/vi/5O5VY7RbsdM/sddefault.jpg",
        "width": 640,
        "height": 480
      },
      "maxres": {
        "url": "https://i.ytimg.com/vi/5O5VY7RbsdM/maxresdefault.jpg",
        "width": 1280,
        "height": 720
      }
    },
    "channelTitle": "Training Positive",
    "playlistId": "PL1912AA0D771586FA",
    "position": 49,
    "resourceId": {
      "kind": "youtube#video",
      "videoId": "5O5VY7RbsdM"
    }
  }
]